{
  "template": "cmake",
  "kill": "qmlscene",
  "ignore": [
    ".git",
    ".gitlab-ci.yml",
    ".gitignore"
  ],
  "postbuild": "python3 ../../../scripts/get_libs.py",
  "dependencies_build": [
    "rsync"
  ]
}
